runid                 	all	GoogolFuel-task1-S41-auto-both-p
num_q                 	all	77
num_ret               	all	77000
num_rel               	all	4073
num_rel_ret           	all	1594
map                   	all	0.0558
gm_map                	all	0.0166
Rprec                 	all	0.0948
bpref                 	all	0.1502
recip_rank            	all	0.4319
iprec_at_recall_0.00  	all	0.4581
iprec_at_recall_0.10  	all	0.1432
iprec_at_recall_0.20  	all	0.0988
iprec_at_recall_0.30  	all	0.0626
iprec_at_recall_0.40  	all	0.0435
iprec_at_recall_0.50  	all	0.0263
iprec_at_recall_0.60  	all	0.0134
iprec_at_recall_0.70  	all	0.0077
iprec_at_recall_0.80  	all	0.0016
iprec_at_recall_0.90  	all	0.0010
iprec_at_recall_1.00  	all	0.0001
P_5                   	all	0.2156
P_10                  	all	0.1714
P_15                  	all	0.1481
P_20                  	all	0.1344
P_30                  	all	0.1216
P_100                 	all	0.0795
P_200                 	all	0.0560
P_500                 	all	0.0328
P_1000                	all	0.0207
recall_5              	all	0.0215
recall_10             	all	0.0340
recall_15             	all	0.0419
recall_20             	all	0.0488
recall_30             	all	0.0659
recall_100            	all	0.1411
recall_200            	all	0.1998
recall_500            	all	0.2970
recall_1000           	all	0.3756
infAP                 	all	0.0558
gm_bpref              	all	0.0298
Rprec_mult_0.20       	all	0.1611
Rprec_mult_0.40       	all	0.1318
Rprec_mult_0.60       	all	0.1208
Rprec_mult_0.80       	all	0.1066
Rprec_mult_1.00       	all	0.0948
Rprec_mult_1.20       	all	0.0851
Rprec_mult_1.40       	all	0.0797
Rprec_mult_1.60       	all	0.0740
Rprec_mult_1.80       	all	0.0698
Rprec_mult_2.00       	all	0.0663
utility               	all	-958.5974
11pt_avg              	all	0.0778
binG                  	all	0.0715
G                     	all	0.0628
ndcg                  	all	0.2199
ndcg_rel              	all	0.1960
Rndcg                 	all	0.1358
ndcg_cut_5            	all	0.1473
ndcg_cut_10           	all	0.1324
ndcg_cut_15           	all	0.1219
ndcg_cut_20           	all	0.1167
ndcg_cut_30           	all	0.1159
ndcg_cut_100          	all	0.1325
ndcg_cut_200          	all	0.1551
ndcg_cut_500          	all	0.1927
ndcg_cut_1000         	all	0.2199
map_cut_5             	all	0.0156
map_cut_10            	all	0.0197
map_cut_15            	all	0.0222
map_cut_20            	all	0.0242
map_cut_30            	all	0.0282
map_cut_100           	all	0.0419
map_cut_200           	all	0.0479
map_cut_500           	all	0.0534
map_cut_1000          	all	0.0558
relative_P_5          	all	0.2156
relative_P_10         	all	0.1727
relative_P_15         	all	0.1508
relative_P_20         	all	0.1393
relative_P_30         	all	0.1316
relative_P_100        	all	0.1491
relative_P_200        	all	0.1998
relative_P_500        	all	0.2970
relative_P_1000       	all	0.3756
success_1             	all	0.3117
success_5             	all	0.5844
success_10            	all	0.6623
set_P                 	all	0.0207
set_relative_P        	all	0.3756
set_recall            	all	0.3756
set_map               	all	0.0101
set_F                 	all	0.0381
num_nonrel_judged_ret 	all	6259
